

{
   "description": {
      "title": "Global Land and Ocean Temperature Anomalies, February",
      "units": "Degrees Celsius",
      "base_period": "1901-2000",
      "missing": -999
   },
   "data": {
      "1880": "-0.12",
      "1881": "-0.03",
      "1882": "0.03",
      "1883": "-0.30",
      "1884": "-0.15",
      "1885": "-0.26",
      "1886": "-0.28",
      "1887": "-0.38",
      "1888": "-0.33",
      "1889": "0.01",
      "1890": "-0.43",
      "1891": "-0.52",
      "1892": "-0.12",
      "1893": "-0.60",
      "1894": "-0.21",
      "1895": "-0.40",
      "1896": "-0.07",
      "1897": "-0.10",
      "1898": "-0.28",
      "1899": "-0.28",
      "1900": "-0.08",
      "1901": "-0.07",
      "1902": "-0.03",
      "1903": "-0.08",
      "1904": "-0.46",
      "1905": "-0.61",
      "1906": "-0.23",
      "1907": "-0.40",
      "1908": "-0.37",
      "1909": "-0.45",
      "1910": "-0.36",
      "1911": "-0.53",
      "1912": "-0.11",
      "1913": "-0.39",
      "1914": "-0.12",
      "1915": "-0.01",
      "1916": "-0.17",
      "1917": "-0.47",
      "1918": "-0.28",
      "1919": "-0.03",
      "1920": "-0.22",
      "1921": "-0.14",
      "1922": "-0.28",
      "1923": "-0.37",
      "1924": "-0.18",
      "1925": "-0.27",
      "1926": "0.09",
      "1927": "-0.18",
      "1928": "-0.13",
      "1929": "-0.53",
      "1930": "-0.20",
      "1931": "-0.22",
      "1932": "-0.17",
      "1933": "-0.32",
      "1934": "-0.03",
      "1935": "0.17",
      "1936": "-0.31",
      "1937": "0.04",
      "1938": "-0.05",
      "1939": "-0.11",
      "1940": "0.05",
      "1941": "0.22",
      "1942": "0.09",
      "1943": "0.16",
      "1944": "0.30",
      "1945": "0.01",
      "1946": "0.09",
      "1947": "-0.08",
      "1948": "-0.10",
      "1949": "-0.15",
      "1950": "-0.24",
      "1951": "-0.41",
      "1952": "0.09",
      "1953": "0.15",
      "1954": "-0.09",
      "1955": "-0.13",
      "1956": "-0.28",
      "1957": "-0.12",
      "1958": "0.21",
      "1959": "0.06",
      "1960": "0.19",
      "1961": "0.17",
      "1962": "0.17",
      "1963": "0.26",
      "1964": "-0.11",
      "1965": "-0.20",
      "1966": "-0.04",
      "1967": "-0.17",
      "1968": "-0.13",
      "1969": "-0.11",
      "1970": "0.23",
      "1971": "-0.22",
      "1972": "-0.17",
      "1973": "0.37",
      "1974": "-0.26",
      "1975": "0.03",
      "1976": "-0.12",
      "1977": "0.24",
      "1978": "0.13",
      "1979": "0.09",
      "1980": "0.35",
      "1981": "0.36",
      "1982": "0.16",
      "1983": "0.48",
      "1984": "0.17",
      "1985": "0.02",
      "1986": "0.28",
      "1987": "0.50",
      "1988": "0.39",
      "1989": "0.30",
      "1990": "0.40",
      "1991": "0.46",
      "1992": "0.45",
      "1993": "0.39",
      "1994": "0.08",
      "1995": "0.69",
      "1996": "0.45",
      "1997": "0.43",
      "1998": "0.86",
      "1999": "0.67",
      "2000": "0.54",
      "2001": "0.39",
      "2002": "0.78",
      "2003": "0.56",
      "2004": "0.72",
      "2005": "0.51",
      "2006": "0.62",
      "2007": "0.66",
      "2008": "0.38",
      "2009": "0.56",
      "2010": "0.71",
      "2011": "0.49",
      "2012": "0.42",
      "2013": "0.63",
      "2014": "0.48",
      "2015": "0.89",
      "2016": "1.22",
      "2017": "0.97",
      "2018": "0.65"
   }
}

